lab-03
…
#The movement of COVID-19 was mostly in one area before moving steadily and then dispersing into many different areas suddenly. One possible driver is a superspreader event; in the area where there is a large amount of dots, Kentucky, it is possible that there was a large event where multiple people got sick. Then this cohort moved together across multiple states, before dispersing back to their own and spreading COVID through there.

Question 8:

weighted_data <- inner_join(covid_data, location, by = "fips")

weighted_data %>% 
  group_by(date) %>% 
  summarise(wmX_c = sum(LON*cases) / sum(cases),
            wmY_c = sum(LAT*cases) / sum(cases),
            cases = sum(cases)) %>% 
  arrange(date) %>% 
  mutate(d = 1:n())

# A tibble: 844 × 5
   date        wmX_c wmY_c cases     d
   <date>      <dbl> <dbl> <dbl> <int>
 1 2020-01-21 -122.   48.0     1     1
 2 2020-01-22 -122.   48.0     1     2
 3 2020-01-23 -122.   48.0     1     3
 4 2020-01-24 -105.   44.9     2     4
 5 2020-01-25 -105.   44.9     2     5
 6 2020-01-26 -105.   44.9     2     6
 7 2020-01-27 -105.   44.9     2     7
 8 2020-01-28 -105.   44.9     2     8
 9 2020-01-29 -105.   44.9     2     9
10 2020-01-30  -99.1  43.9     3    10
# ℹ 834 more rows
…
